<svg width="32" height="32" viewBox="0 0 32 32" fill="none" xmlns="http://www.w3.org/2000/svg">
<path fill-rule="evenodd" clip-rule="evenodd" d="M13.2667 8.73084L13.2106 5.91462L25.2802 6.1549L25.5204 18.2244L22.7042 18.1683L22.52 8.91505L13.2667 8.73084Z" fill="#D4D4D4"/>
<path fill-rule="evenodd" clip-rule="evenodd" d="M18.1684 22.8737L18.2244 25.6899L6.15491 25.4496L5.91463 13.3801L8.73085 13.4361L8.91506 22.6894L18.1684 22.8737Z" fill="#D4D4D4"/>
</svg>
