<svg width="51" height="51" viewBox="0 0 51 51" fill="none" xmlns="http://www.w3.org/2000/svg">
<path d="M25.1197 5.0506H7.98458C6.43337 5.0506 5.17142 6.31255 5.17142 7.86377V9.22662C5.17142 10.1885 6.66556 10.1902 6.66556 9.22662V7.86377C6.66556 7.13642 7.25724 6.54474 7.98458 6.54474H25.1197C25.8469 6.54474 26.4387 7.13642 26.4387 7.86377V19.5142C26.4387 20.2415 25.847 20.8332 25.1197 20.8332H7.98458C7.25724 20.8332 6.66556 20.2415 6.66556 19.5142V12.8905C6.66556 11.9285 5.17142 11.9268 5.17142 12.8905V19.5142C5.17142 21.0654 6.43337 22.3273 7.98458 22.3273H25.1197C26.6709 22.3273 27.9329 21.0654 27.9329 19.5142V7.86377C27.9329 6.31255 26.6709 5.0506 25.1197 5.0506Z" fill="#0082C9"/>
<path d="M16.536 11.7556C16.1262 11.7588 15.7949 12.0921 15.7949 12.5027V13.1852L9.33769 16.9193C8.69331 17.2919 8.96664 18.3132 9.71162 18.3132H23.3927C24.1369 18.3132 24.4116 17.2924 23.7666 16.9193L17.289 13.1734V13.0654C17.8726 12.7964 18.5187 12.2081 18.5187 11.1142C18.5187 9.93074 17.6262 9.03824 16.4427 9.03824C15.298 9.03824 14.3668 9.96949 14.3668 11.1142C14.3668 12.0761 15.8609 12.0778 15.8609 11.1142C15.8609 10.7934 16.1219 10.5324 16.4427 10.5324C16.7112 10.5324 17.0245 10.6848 17.0245 11.1142C17.0245 11.6008 16.6853 11.7247 16.536 11.7556ZM12.4958 16.8189L16.5521 14.4732L20.6084 16.8189H12.4958Z" fill="#0082C9"/>
<path d="M14.0121 26.8945H8.86125C8.52079 25.7994 7.498 25.002 6.29233 25.002C4.80934 25.002 3.60287 26.2084 3.60287 27.6914C3.60287 29.1744 4.80934 30.3809 6.29233 30.3809C7.53416 30.3809 8.58165 29.5346 8.88954 28.3887H14.0121C14.974 28.3887 14.9757 26.8945 14.0121 26.8945ZM6.29233 28.8867C5.63321 28.8867 5.09702 28.3505 5.09702 27.6914C5.09702 27.0323 5.63321 26.4961 6.29233 26.4961C6.95144 26.4961 7.48764 27.0323 7.48764 27.6914C7.48764 28.3505 6.95144 28.8867 6.29233 28.8867Z" fill="#0082C9"/>
<path d="M50.2529 15.5391C50.6656 15.5391 51 15.2046 51 14.792V9.21387C51 8.80128 50.6656 8.4668 50.2529 8.4668H47.4141C46.4521 8.4668 46.4504 9.96094 47.4141 9.96094H49.5059V14.0449H45.6211V12.6504H46.3682C47.3301 12.6504 47.3318 11.1562 46.3682 11.1562H43.1807C42.2187 11.1562 42.217 12.6504 43.1807 12.6504H44.127V14.0449H38.748V12.6504H39.4951C40.457 12.6504 40.4587 11.1562 39.4951 11.1562H36.3076C35.3457 11.1562 35.344 12.6504 36.3076 12.6504H37.2539V14.0449H33.1699V9.96094H44.127C45.0889 9.96094 45.0906 8.4668 44.127 8.4668H33.1043V3.1866C33.1043 1.42949 31.6748 0 29.9178 0H3.1866C1.42949 0 0 1.42949 0 3.1866V47.8135C0 49.5705 1.42949 51 3.1866 51H18.8862H21.7646H29.9178C31.6749 51 33.1043 49.5705 33.1043 47.8134V42.5454H46.6274V50.2529C46.6274 50.6655 46.9618 51 47.3745 51H50.2529C50.6656 51 51 50.6655 51 50.2529V41.8359C51 41.8296 50.9992 41.8235 50.999 41.8171C50.9992 41.8108 51 41.8047 51 41.7983V37.9937C51 35.4839 48.9581 33.4421 46.4483 33.4421H33.1043V15.5391H50.2529ZM19.6333 49.5059V42.5454H21.0176V49.5059H19.6333ZM31.6101 47.8134C31.6101 48.7466 30.8509 49.5059 29.9178 49.5059H22.5117V42.5454H31.6101V47.8134ZM48.1216 49.5059V42.5454H49.5059V49.5059H48.1216ZM49.5059 37.9937V38.2002H44.2266C43.2646 38.2002 43.2629 39.6943 44.2266 39.6943H49.5059V41.0512H19.6333V39.6943H40.541C41.5029 39.6943 41.5046 38.2002 40.541 38.2002H19.6333C19.6333 36.462 20.8668 34.9362 22.6908 34.9362H46.4483C48.1342 34.9362 49.5059 36.3077 49.5059 37.9937ZM22.6907 33.4421C20.181 33.4421 18.1391 35.4839 18.1391 37.9937V41.7983V49.5059H3.1866C2.25336 49.5059 1.49414 48.7466 1.49414 47.8134V3.1866C1.49414 2.25336 2.25336 1.49414 3.1866 1.49414H29.9178C30.8509 1.49414 31.6101 2.25336 31.6101 3.1866V33.4421H22.6907Z" fill="#0082C9"/>
</svg>
