<svg width="1228" height="183" viewBox="0 0 1228 183" fill="none" xmlns="http://www.w3.org/2000/svg">
<path d="M0 0H1L3 26L5 30H7L8 45H15V57H17V82H21V107H35V129H40V118H46V113H69V131H83V96H118V138H125V127H132V118H137V100H172V76H199V92H202V66H234V92H241V94H250V103L253 101V96H254V92H261V96H262V101H270V91H273V84H275V74H277V71H285V74H287V84H289V105H292V109H297V102L310 93H327V77H329V72H342V61H375V87H382V78H385V65H389V55H390L392 48H393L395 55H396V65H400V78H403V93H422L427 100V108H431V94H434V85H444V92H454V61H486V92H494V94H502V101L505 103V96H507V92H513V96H515V101H520V94H522V91H525V61H541V105H545V109H549V102H553V97L559 94H560L562 93H565V71H591V93H593V54H600V50H617L619 46V41H620V37H619V35L620 33L621 26H622L623 33L624 35V37H623V41H624V46L627 50H629V100H634V78H637V68H641V66H649V68H653V78H656V96H677L680 100V114H687V109H690V87H694V69H718V74H724V87H725V111H732V106H735V100H744L762 82V73H786V80H814V120H816V97H848V120H856V123H864V132L867 129V120H887V112H903V134H907V138H911V131L924 121V102H948V89H981V121H985V116H996V106H1018V121H1036L1042 128V137H1045V123H1048V114H1058V123H1063V91H1100V123H1116V129L1120 132V125H1129V130H1135V123H1140V90H1160V138H1163V131H1167V126L1176 122V99H1203V121H1207V82H1211V56H1213V45H1220L1221 30H1223L1225 26L1227 0H1228V183H0V0Z" fill="#1BC157" fill-opacity="0.5"/>
</svg>
