<?xml version="1.0" encoding="utf-8"?>
<!-- Generator: Adobe Illustrator 22.1.0, SVG Export Plug-In . SVG Version: 6.00 Build 0)  -->
<svg version="1.1" id="Слой_1" xmlns="http://www.w3.org/2000/svg" xmlns:xlink="http://www.w3.org/1999/xlink" x="0px" y="0px"
	 viewBox="0 0 75 75" style="enable-background:new 0 0 75 75;" xml:space="preserve">
<style type="text/css">
	.st0{fill-rule:evenodd;clip-rule:evenodd;fill:#FFFFFF;}
	.st1{fill-rule:evenodd;clip-rule:evenodd;fill:#488CCD;}
	.st2{fill-rule:evenodd;clip-rule:evenodd;fill:#AACA56;}
</style>
<g>
	<rect x="0.1" y="-0.2" class="st0" width="75.4" height="75.4"/>
	<path class="st1" d="M43.4,39.8v0.7h-3v-0.7H43.4L43.4,39.8z M40.1,41.8h0.7v3h-0.7V41.8L40.1,41.8z M40.1,47.8h0.7v3h-0.7V47.8
		L40.1,47.8z M40.1,53.7h0.7v3h-0.7V53.7L40.1,53.7z M40.1,59.7h0.7v3h-0.7V59.7L40.1,59.7z M40.1,65.6h0.7v3h-0.7V65.6L40.1,65.6z
		 M40.1,71.5h0.7v0.6h1.7v0.7h-2h-0.4v-0.4V71.5L40.1,71.5z M45.5,72.8v-0.7h3v0.7H45.5L45.5,72.8z M51.4,72.8v-0.7h3v0.7H51.4
		L51.4,72.8z M57.4,72.8v-0.7h3v0.7H57.4L57.4,72.8z M63.3,72.8v-0.7h3v0.7H63.3L63.3,72.8z M69.2,72.8v-0.7h3v0.7H69.2L69.2,72.8z
		 M73.2,70.1h-0.7v-3h0.7V70.1L73.2,70.1z M73.2,64.2h-0.7v-3h0.7V64.2L73.2,64.2z M73.2,58.2h-0.7v-3h0.7V58.2L73.2,58.2z
		 M73.2,52.3h-0.7v-3h0.7V52.3L73.2,52.3z M73.2,46.4h-0.7v-3h0.7V46.4L73.2,46.4z M73.2,40.4h-0.3l0,0h-2.7v-0.7h2.7h0.4v0.4V40.4
		L73.2,40.4z M67.2,39.8v0.7h-3v-0.7H67.2L67.2,39.8z M61.3,39.8v0.7h-3v-0.7H61.3L61.3,39.8z M55.3,39.8v0.7h-3v-0.7H55.3
		L55.3,39.8z M49.4,39.8v0.7h-3v-0.7H49.4z"/>
	<path class="st1" d="M63.2,57.9c-0.1-0.2-1-0.9-0.7-2.2c0.1-0.3,0.1-0.2,0-0.6c-0.1-0.3-0.1-1.9,0-2.1c0.3,0.3,0.4,1.5,0.5,1.8
		c0.3-0.1,0.2-0.3,1-0.5c0.4-0.1,0.7-0.1,1,0c-0.1-1.4-0.7-2.6-1.6-3.6c-0.6-0.7-2.2-1.9-3.1-2c-0.2,0.2-0.4,0.5-0.6,0.7
		c-0.3-0.1-0.5-0.7-0.8-0.6c-0.4,0.1-1.5,0.8-1.9,1.1l-0.8,0.7c-0.1-0.1-0.2-0.2-0.4-0.4c-0.6-0.5-1.6-1.2-2.3-1.4
		c-0.2,0-0.3,0.2-0.4,0.3c-0.1,0.1-0.3,0.2-0.3,0.4c-0.2-0.1-0.4-0.5-0.7-0.7c-0.7,0.1-1.9,1-2.4,1.4c-1.2,1.1-1.8,2.4-2,4.4
		c1.5-0.5,1.2-0.1,2.1,0.1c0.1-0.5,0.1-0.8,0.3-1.2c0,0.3,0,0.7,0,1c0,0.6-0.1,0.4,0.2,0.8c0.3,0.4,0.5,0.9,0.4,1.5
		c-0.1,1-0.9,1.2-0.3,1.7c1,0.8,1.6,2.2,1.8,3.5c0.1,0.6,0.2,1.2-0.2,1.7c-0.2,0.2-0.4,0.3-0.6,0.3c-0.4,0-0.6-0.1-0.7-0.1
		c-0.1,1.8,0,3.6,0,5.3c0.2,0.1,0.2,0.2,0.5,0.3c0.6,0.2,1.3-0.2,1.5-0.7c0.2-0.4,0.1-2.4,0.1-3l0-5.4c0-0.2-0.1-0.6,0.1-0.7
		c0.1,0.1,0.1,0,0.1,0.1v0.6c0,1.1,0,7.8,0,8.1c0.1,0.8,1,1.3,1.8,0.9c0.3-0.1,0.6-0.5,0.6-0.9c0.1-0.8-0.1-10.1,0.1-10.3
		c0.1-0.1,0.4-0.1,0.5-0.1c0.2-0.1,0.2-0.2,0.4-0.2l0.2,0.1c-0.1,0.9-0.7,3.1-0.9,4.4c-0.1,0.5-0.1,0.5,0.2,0.8
		c0.4,0.3,1,0.4,1.5,0.6c0,1.2,0,2.3,0,3.5c0,0.5-0.1,1.2,0.1,1.6c0.4,0.8,1.6,1,2.2,0.1c0.2-0.4,0.2-1,0.2-1.5l0-3.2
		c0-0.1,0-0.1,0.1-0.1c0.1,0.1,0.1,0,0.1,0.1l0,2.7c0,1-0.2,1.9,0.4,2.4c0.6,0.6,1.6,0.3,1.9-0.3c0.2-0.4,0.2-2.1,0.1-2.7l-0.6,0
		l0.4-2.2c-0.7,0-1.1-0.4-1.1-1.2C61,60.8,61.8,58.8,63.2,57.9L63.2,57.9z M63.9,69.5h-0.3C62.8,69,63,69.2,63,67.8
		c0-0.7,0.1-1.7,0-2.4l-0.6,0c0-1.1,0.7-2.9,0.6-4.3c-0.4,0.4,0.1,1.9-0.7,2.1c-1.3,0.2-0.6-2.7,0.4-4c0.4-0.5,0.8-1,1.6-1.2
		c0.1,0.1,0.3,0.3,0.4,0.4c0.2-0.1,0.3-0.3,0.4-0.4c1.7,0.5,2.9,2.9,2.7,4.7c0,0.5-0.5,0.8-0.9,0.5c-0.3-0.2-0.2-0.7-0.3-1.2
		c-0.1-0.5-0.2-0.8-0.3-1.2c-0.1,0.9,0,1.6,0.2,2.4c0.1,0.6,0.4,1.7,0.4,2.2l-0.7,0c-0.1,0.9,0.1,2.8,0,3.4c0,0.2-0.1,0.3-0.2,0.4
		c-0.1,0.1-0.1,0.1-0.2,0.2l-0.1,0.1c0,0,0,0,0,0h-0.4H63.9L63.9,69.5z M48.3,54.7c0.9-0.2,1.7,0.5,1.9,1.2c0.2,1-0.5,1.7-1.2,1.9
		C47.1,58.2,46.2,55.3,48.3,54.7L48.3,54.7z M64.2,54.7c0.4-0.1,1,0,1.3,0.2c0.3,0.2,0.5,0.5,0.7,1c0.3,1-0.5,1.7-1.2,1.9
		c-0.8,0.2-1.7-0.3-1.9-1.2c-0.2-0.7,0.1-1.3,0.6-1.7C63.8,54.8,63.9,54.8,64.2,54.7L64.2,54.7z M53.1,43.1h-0.8
		c-0.2,0.1-0.9,0.1-1.6,0.9c-1.5,1.7-0.3,4.4,2,4.5c2.3,0,3.6-2.7,2.1-4.4c-0.3-0.3-0.7-0.6-1.1-0.8C53.4,43.2,53.2,43.2,53.1,43.1
		L53.1,43.1z M60.1,43.1c0.1,0.1,0.4,0.1,0.5,0.2c1.9,0.6,2.5,3.2,1,4.5c-2.4,2.2-6.1-1.1-3.8-3.8c0.6-0.7,1.5-0.8,1.7-0.9H60.1
		L60.1,43.1z M48.6,64.2c-0.1,0.2,0,3.1,0,3.7c0,0.7,0.1,1.2-0.5,1.3c-0.5,0.1-0.9-0.1-0.9-0.9v-4.7c0-0.1,0-0.3,0-0.4
		c0-0.2-0.1-0.2-0.1-0.4c0-0.4,0.1-1.6,0-1.8c-0.4,0.8,0,2-0.7,2.1c-1.5,0.3-0.3-4.6,2-5.1c0.1,0.1,0.2,0.3,0.4,0.4
		c0.1-0.1,0.3-0.3,0.4-0.4c1.7,0.5,2.9,3.1,2.7,4.7c0,0.4-0.4,0.7-0.8,0.5c-0.5-0.3-0.1-1.5-0.6-2.3c-0.1,0.2,0,1.5,0,1.8
		c0,0.4-0.1,0.5-0.1,0.8l0,4.8c0,0.5-0.1,1.1-0.8,1.1c-0.3,0-0.5-0.2-0.6-0.4c-0.2-0.3-0.1-3.1-0.1-3.8c0-0.2,0-0.3,0-0.5
		c0-0.1,0-0.2,0-0.3C48.7,64.2,48.7,64.3,48.6,64.2z"/>
	<path class="st2" d="M5.8,2.1v0.7h-3V2.1H5.8L5.8,2.1z M2.5,4.2h0.7v3H2.5V4.2L2.5,4.2z M2.5,10.1h0.7v3H2.5V10.1L2.5,10.1z
		 M2.5,16h0.7v3H2.5V16L2.5,16z M2.5,22h0.7v3H2.5V22L2.5,22z M2.5,27.9h0.7v3H2.5V27.9L2.5,27.9z M2.5,33.9h0.7v0.6h1.7v0.7h-2H2.5
		v-0.4V33.9L2.5,33.9z M7.8,35.2v-0.7h3v0.7H7.8L7.8,35.2z M13.8,35.2v-0.7h3v0.7H13.8L13.8,35.2z M19.7,35.2v-0.7h3v0.7H19.7
		L19.7,35.2z M25.6,35.2v-0.7h3v0.7H25.6L25.6,35.2z M31.6,35.2v-0.7h3v0.7H31.6L31.6,35.2z M35.5,32.4h-0.7v-3h0.7V32.4L35.5,32.4z
		 M35.5,26.5h-0.7v-3h0.7V26.5L35.5,26.5z M35.5,20.6h-0.7v-3h0.7V20.6L35.5,20.6z M35.5,14.6h-0.7v-3h0.7V14.6L35.5,14.6z
		 M35.5,8.7h-0.7v-3h0.7V8.7L35.5,8.7z M35.5,2.7h-0.3l0,0h-2.7V2.1h2.7h0.4v0.4V2.7L35.5,2.7z M29.5,2.1v0.7h-3V2.1H29.5L29.5,2.1z
		 M23.6,2.1v0.7h-3V2.1H23.6L23.6,2.1z M17.7,2.1v0.7h-3V2.1H17.7L17.7,2.1z M11.7,2.1v0.7h-3V2.1H11.7z"/>
	<path class="st2" d="M20.6,15.5l1.4,0l0,1.4c0,0.3,0.2,0.5,0.3,0.6c0.2,0.2,0.3,0.3,0.5,0.5l2.4,2.4c0.1,0.1,0.1,0.1,0.1,0.2l0,4.5
		c0,0.6,0,1.3,0,1.9c0,0.3,0,1.7,0,1.9c-0.2,0-3.7,0-4,0l-8,0c-0.3,0-3.8,0-4,0c0-2,0-4.1,0-6.1l0-2.3c0-0.1,0.3-0.3,0.4-0.4
		l6.1-6.1c0.3-0.3,0.5-0.5,0.8-0.8l0.8-0.8l2.8,2.8C20.2,15.3,20.4,15.4,20.6,15.5L20.6,15.5z M16.2,22.7c-0.1,0.1-0.1,0.2-0.1,0.4
		v1.5c0,0.4,0,0.4,0.6,0.4c1.3,0,1.1,0.2,1.1-0.9c0-0.3,0-0.7,0-1c0-0.4-0.1-0.4-0.6-0.4C17,22.7,16.3,22.7,16.2,22.7L16.2,22.7z
		 M14.2,22.7c-0.1,0.1-0.1,0.2-0.1,0.4v1.5c0,0.2,0,0.3,0.1,0.4c0.1,0,1.5,0,1.5,0c0.2,0,0.1-0.2,0.1-0.4v-1.5
		c0-0.4-0.1-0.4-0.6-0.4C15,22.7,14.3,22.7,14.2,22.7L14.2,22.7z M14.2,19.9c-0.1,0.1-0.1,0.2-0.1,0.4v1.5c0,0.2,0,0.3,0.2,0.3
		c0.1,0,1.4,0,1.5,0c0.2-0.1,0.1-0.2,0.1-0.4v-1.5c0-0.4-0.1-0.4-0.7-0.4C15,19.9,14.3,19.9,14.2,19.9L14.2,19.9z M16.2,19.9
		c-0.1,0.1-0.1,0.2-0.1,0.4v1.5c0,0.4,0.1,0.3,0.7,0.3c1.3,0,1.1,0.2,1.1-0.9c0-0.3,0-0.7,0-1c0-0.4-0.1-0.4-0.7-0.4
		C17,19.9,16.3,19.9,16.2,19.9L16.2,19.9z M12.6,19.3c-0.6,0.1-0.5,0.7-0.5,1c0,0.4,0,4.5,0,4.7c0.1,0.6,0.7,0.5,1,0.5
		c0.4,0,4.5,0,4.7,0c0.6-0.1,0.5-0.7,0.5-1c0-0.4,0-4.5,0-4.7c0-0.2-0.2-0.4-0.3-0.5c-0.2-0.1-0.5-0.1-0.7-0.1
		C17,19.3,12.8,19.3,12.6,19.3L12.6,19.3z M30.6,18.9c0-0.5,0.1-0.9-0.2-1.3c-0.1-0.1-0.6-0.6-0.8-0.8L27,14.1
		c-0.2-0.2-0.3-0.3-0.3-0.4c0-0.5,0-1,0-1.5c0-0.6,0-0.9-0.3-1.2c-0.3-0.3-0.7-0.3-1.3-0.3c-0.2,0-1.4,0-1.5,0l-0.8-0.8
		c-1-1-2-2-3.1-3.1c-0.2-0.2-0.6-0.5-1.1-0.3c-0.2,0.1-0.3,0.2-0.4,0.3L7.9,17.2c-0.2,0.2-0.5,0.5-0.5,1l0,11.5c0,0.6,0.4,1,1,1
		l21.1,0c0.7,0,1.1-0.4,1.1-1.1c0-0.7,0-1.4,0-2.2l0-4.6L30.6,18.9z"/>
	<path class="st1" d="M49.7,15.8c1.3,2.8,0.5,7.1-3,8.2c-1.6,0.5-3,0-4.2-1.2c-1.7-1.7-2.2-2.2-4.3-0.3c-0.2,0.8-0.4,0.5-0.4,1.7
		l0,13.1c0.8,0.2,9.6,0.1,11.2,0.1c1.5,0,4.3,0.5,4.8-2.3c0.4-1.9-3-2.5-2.8-5.7c0.2-2.7,3-4.7,5.9-4.6c2,0.1,5.5,1.7,5.3,5
		c-0.2,3-2.9,3.3-2.8,5c0,0.7,0.5,1.5,1.1,2c0.9,0.8,2.5,0.5,3.6,0.5c1.3,0,2.5,0,3.8,0c1.2,0,7,0.1,7.6-0.1c-0.3-1.8,0-24.4,0-34.8
		c0-0.7,0.1-2.1,0-2.8c-1.5-0.1-3.2,0-4.7,0l-14,0c-3.2,0-6.2,0-9.4,0c-1.6,0-3.1,0-4.7,0L38-0.4c-0.2,0.5-0.1,8.6-0.1,10.2
		c0,1.1-0.1,2.4,0,3.5c0.1,1.5,1.4,2.4,2.4,2.4c1.3,0.1,2.1-1.6,3.2-2.3C45.7,12.2,48.7,13.3,49.7,15.8z"/>
	<path class="st2" d="M26.1,59.1c-1.3-2.8-0.5-7.1,3-8.2c1.6-0.5,3,0,4.2,1.2c1.7,1.7,2.2,2.2,4.3,0.3c0.2-0.8,0.4-0.5,0.4-1.7
		l0-13.1c-0.8-0.2-9.6-0.1-11.2-0.1c-1.5,0-4.3-0.5-4.8,2.3c-0.4,1.9,3,2.5,2.8,5.7c-0.2,2.7-3,4.7-5.9,4.6c-2-0.1-5.5-1.7-5.3-5
		c0.2-3,2.9-3.3,2.8-5c0-0.7-0.5-1.5-1.1-2c-0.9-0.8-2.5-0.5-3.6-0.5c-1.3,0-2.5,0-3.8,0c-1.2,0-7-0.1-7.6,0.1
		c0.3,1.8,0,24.4,0,34.8c0,0.7-0.1,2.1,0,2.8c1.5,0.1,3.2,0,4.7,0l14,0c3.2,0,6.2,0,9.4,0c1.6,0,3.1,0,4.7,0l4.7,0.1
		c0.2-0.5,0.1-8.6,0.1-10.2c0-1.1,0.1-2.4,0-3.5c-0.1-1.5-1.4-2.4-2.4-2.4c-1.3-0.1-2.1,1.6-3.2,2.3C30.1,62.7,27,61.6,26.1,59.1z"
		/>
</g>
</svg>
